Library\Bee\artifacts\mvdfrm\UnityEngine.AccessibilityModule.dll_5D9BDE0E1BAF4B0B.mvfrm
Library\Bee\artifacts\mvdfrm\UnityEngine.AIModule.dll_AEDA0A2793AC777F.mvfrm
Library\Bee\artifacts\mvdfrm\UnityEngine.AndroidJNIModule.dll_FE1FFDD7CE5FFCBD.mvfrm
Library\Bee\artifacts\mvdfrm\UnityEngine.AnimationModule.dll_1939F7D1A2E5EEF1.mvfrm
Library\Bee\artifacts\mvdfrm\UnityEngine.ARModule.dll_684CCF2AF0C9D648.mvfrm
Library\Bee\artifacts\mvdfrm\UnityEngine.AssetBundleModule.dll_514B37EC4B39BE3F.mvfrm
Library\Bee\artifacts\mvdfrm\UnityEngine.AudioModule.dll_DC1DCCAD1E24ABA3.mvfrm
Library\Bee\artifacts\mvdfrm\UnityEngine.ClothModule.dll_430629A7F8418A87.mvfrm
Library\Bee\artifacts\mvdfrm\UnityEngine.ClusterInputModule.dll_AFBC5CCC74411387.mvfrm
Library\Bee\artifacts\mvdfrm\UnityEngine.ClusterRendererModule.dll_FAAE826C899961AA.mvfrm
Library\Bee\artifacts\mvdfrm\UnityEngine.ContentLoadModule.dll_EA61912D19BC662C.mvfrm
Library\Bee\artifacts\mvdfrm\UnityEngine.CoreModule.dll_D69482D6E366B7B6.mvfrm
Library\Bee\artifacts\mvdfrm\UnityEngine.CrashReportingModule.dll_2900019BEDFA390E.mvfrm
Library\Bee\artifacts\mvdfrm\UnityEngine.DirectorModule.dll_D3532A1FB5D24353.mvfrm
Library\Bee\artifacts\mvdfrm\UnityEngine.dll_C380C05A509623FF.mvfrm
Library\Bee\artifacts\mvdfrm\UnityEngine.DSPGraphModule.dll_D8A48B8928331474.mvfrm
Library\Bee\artifacts\mvdfrm\UnityEngine.GameCenterModule.dll_286D47F294A0EDAE.mvfrm
Library\Bee\artifacts\mvdfrm\UnityEngine.GIModule.dll_471653352F5B5F99.mvfrm
Library\Bee\artifacts\mvdfrm\UnityEngine.GridModule.dll_B4059EC4FBBB4DAD.mvfrm
Library\Bee\artifacts\mvdfrm\UnityEngine.HotReloadModule.dll_9A82B5D77E190A73.mvfrm
Library\Bee\artifacts\mvdfrm\UnityEngine.ImageConversionModule.dll_66A0801D0BBE199E.mvfrm
Library\Bee\artifacts\mvdfrm\UnityEngine.IMGUIModule.dll_147D6C13E4563F84.mvfrm
Library\Bee\artifacts\mvdfrm\UnityEngine.InputLegacyModule.dll_E290530AE32B7430.mvfrm
Library\Bee\artifacts\mvdfrm\UnityEngine.InputModule.dll_4293945D945CD047.mvfrm
Library\Bee\artifacts\mvdfrm\UnityEngine.JSONSerializeModule.dll_BDB3674A1AEAAB95.mvfrm
Library\Bee\artifacts\mvdfrm\UnityEngine.LocalizationModule.dll_EE09271F0BBD0680.mvfrm
Library\Bee\artifacts\mvdfrm\UnityEngine.ParticleSystemModule.dll_7C124AE85C0BC49C.mvfrm
Library\Bee\artifacts\mvdfrm\UnityEngine.PerformanceReportingModule.dll_340E20BAB6578275.mvfrm
Library\Bee\artifacts\mvdfrm\UnityEngine.Physics2DModule.dll_65DFE7C243E2E686.mvfrm
Library\Bee\artifacts\mvdfrm\UnityEngine.PhysicsModule.dll_9946282BC95878D4.mvfrm
Library\Bee\artifacts\mvdfrm\UnityEngine.ProfilerModule.dll_059963564F2BCA60.mvfrm
Library\Bee\artifacts\mvdfrm\UnityEngine.PropertiesModule.dll_55A88731078C51EA.mvfrm
Library\Bee\artifacts\mvdfrm\UnityEngine.RuntimeInitializeOnLoadManagerInitializerModule.dll_AAC47FEEC576634F.mvfrm
Library\Bee\artifacts\mvdfrm\UnityEngine.ScreenCaptureModule.dll_D79B14CF2F56D7F7.mvfrm
Library\Bee\artifacts\mvdfrm\UnityEngine.SharedInternalsModule.dll_EAB1BEF282EC14EE.mvfrm
Library\Bee\artifacts\mvdfrm\UnityEngine.SpriteMaskModule.dll_1199BA82B6108328.mvfrm
Library\Bee\artifacts\mvdfrm\UnityEngine.SpriteShapeModule.dll_6AAC654700DBF649.mvfrm
Library\Bee\artifacts\mvdfrm\UnityEngine.StreamingModule.dll_CDCEE521F26DA62F.mvfrm
Library\Bee\artifacts\mvdfrm\UnityEngine.SubstanceModule.dll_AA79F96B3DC0A43D.mvfrm
Library\Bee\artifacts\mvdfrm\UnityEngine.SubsystemsModule.dll_7C4720E484586B3B.mvfrm
Library\Bee\artifacts\mvdfrm\UnityEngine.TerrainModule.dll_B38CA39A9F16C1C2.mvfrm
Library\Bee\artifacts\mvdfrm\UnityEngine.TerrainPhysicsModule.dll_7C8CF3BB754EBF29.mvfrm
Library\Bee\artifacts\mvdfrm\UnityEngine.TextCoreFontEngineModule.dll_11E514847938A474.mvfrm
Library\Bee\artifacts\mvdfrm\UnityEngine.TextCoreTextEngineModule.dll_59CD4AF608BC5D92.mvfrm
Library\Bee\artifacts\mvdfrm\UnityEngine.TextRenderingModule.dll_00DA86D9E68E57EC.mvfrm
Library\Bee\artifacts\mvdfrm\UnityEngine.TilemapModule.dll_52890B1BB6D3A2CB.mvfrm
Library\Bee\artifacts\mvdfrm\UnityEngine.TLSModule.dll_A598D258B39A74A8.mvfrm
Library\Bee\artifacts\mvdfrm\UnityEngine.UIElementsModule.dll_8085824C8784A732.mvfrm
Library\Bee\artifacts\mvdfrm\UnityEngine.UIModule.dll_AA4DA854EFF37D2B.mvfrm
Library\Bee\artifacts\mvdfrm\UnityEngine.UmbraModule.dll_56F278C5AB4B5716.mvfrm
Library\Bee\artifacts\mvdfrm\UnityEngine.UnityAnalyticsCommonModule.dll_CF4CDDFED04020D3.mvfrm
Library\Bee\artifacts\mvdfrm\UnityEngine.UnityAnalyticsModule.dll_9BB1BBB208331698.mvfrm
Library\Bee\artifacts\mvdfrm\UnityEngine.UnityConnectModule.dll_1D7F6BC5BD41416C.mvfrm
Library\Bee\artifacts\mvdfrm\UnityEngine.UnityCurlModule.dll_4C56990312F9E0DE.mvfrm
Library\Bee\artifacts\mvdfrm\UnityEngine.UnityTestProtocolModule.dll_77DD133B6460644C.mvfrm
Library\Bee\artifacts\mvdfrm\UnityEngine.UnityWebRequestAssetBundleModule.dll_43F08D4442986B69.mvfrm
Library\Bee\artifacts\mvdfrm\UnityEngine.UnityWebRequestAudioModule.dll_AC0A74993CC24D0D.mvfrm
Library\Bee\artifacts\mvdfrm\UnityEngine.UnityWebRequestModule.dll_783F87C716B2B41D.mvfrm
Library\Bee\artifacts\mvdfrm\UnityEngine.UnityWebRequestTextureModule.dll_4A30E8E3254BB682.mvfrm
Library\Bee\artifacts\mvdfrm\UnityEngine.UnityWebRequestWWWModule.dll_248F9051F87C19FE.mvfrm
Library\Bee\artifacts\mvdfrm\UnityEngine.VehiclesModule.dll_4B16239F2FFC12EE.mvfrm
Library\Bee\artifacts\mvdfrm\UnityEngine.VFXModule.dll_26776AC78A07DE15.mvfrm
Library\Bee\artifacts\mvdfrm\UnityEngine.VideoModule.dll_01275117E0B6C748.mvfrm
Library\Bee\artifacts\mvdfrm\UnityEngine.VirtualTexturingModule.dll_B085B36290215AD4.mvfrm
Library\Bee\artifacts\mvdfrm\UnityEngine.VRModule.dll_FD1FCEDA91AE02A3.mvfrm
Library\Bee\artifacts\mvdfrm\UnityEngine.WindModule.dll_4CE35DFF749D361F.mvfrm
Library\Bee\artifacts\mvdfrm\UnityEngine.XRModule.dll_2FDE91DF1AE85001.mvfrm