%YAML 1.1
%TAG !u! tag:unity3d.com,2011:
--- !u!1001 &6280764973795383959
PrefabInstance:
  m_ObjectHideFlags: 0
  serializedVersion: 2
  m_Modification:
    serializedVersion: 3
    m_TransformParent: {fileID: 0}
    m_Modifications:
    - target: {fileID: 8619338777999598093, guid: 47a3741b253f088469eedd6d403dd89a, type: 3}
      propertyPath: m_Avatar
      value: 
      objectReference: {fileID: 0}
    - target: {fileID: 8619338777999598093, guid: 47a3741b253f088469eedd6d403dd89a, type: 3}
      propertyPath: m_Controller
      value: 
      objectReference: {fileID: 9100000, guid: 43ea1ad1a8754c14a8266ce2face16f2, type: 2}
    - target: {fileID: 8619338777999598093, guid: 47a3741b253f088469eedd6d403dd89a, type: 3}
      propertyPath: m_ApplyRootMotion
      value: 0
      objectReference: {fileID: 0}
    - target: {fileID: 8619338778009079851, guid: 47a3741b253f088469eedd6d403dd89a, type: 3}
      propertyPath: m_Name
      value: TT_demo_police Variant
      objectReference: {fileID: 0}
    - target: {fileID: 8619338778009177163, guid: 47a3741b253f088469eedd6d403dd89a, type: 3}
      propertyPath: m_RootOrder
      value: 0
      objectReference: {fileID: 0}
    - target: {fileID: 8619338778009177163, guid: 47a3741b253f088469eedd6d403dd89a, type: 3}
      propertyPath: m_LocalScale.x
      value: 0.43785143
      objectReference: {fileID: 0}
    - target: {fileID: 8619338778009177163, guid: 47a3741b253f088469eedd6d403dd89a, type: 3}
      propertyPath: m_LocalScale.y
      value: 0.43785143
      objectReference: {fileID: 0}
    - target: {fileID: 8619338778009177163, guid: 47a3741b253f088469eedd6d403dd89a, type: 3}
      propertyPath: m_LocalScale.z
      value: 0.43785143
      objectReference: {fileID: 0}
    - target: {fileID: 8619338778009177163, guid: 47a3741b253f088469eedd6d403dd89a, type: 3}
      propertyPath: m_LocalPosition.x
      value: -15.341
      objectReference: {fileID: 0}
    - target: {fileID: 8619338778009177163, guid: 47a3741b253f088469eedd6d403dd89a, type: 3}
      propertyPath: m_LocalPosition.y
      value: 1.73
      objectReference: {fileID: 0}
    - target: {fileID: 8619338778009177163, guid: 47a3741b253f088469eedd6d403dd89a, type: 3}
      propertyPath: m_LocalPosition.z
      value: 43.125
      objectReference: {fileID: 0}
    - target: {fileID: 8619338778009177163, guid: 47a3741b253f088469eedd6d403dd89a, type: 3}
      propertyPath: m_LocalRotation.w
      value: 0.4913869
      objectReference: {fileID: 0}
    - target: {fileID: 8619338778009177163, guid: 47a3741b253f088469eedd6d403dd89a, type: 3}
      propertyPath: m_LocalRotation.x
      value: -0
      objectReference: {fileID: 0}
    - target: {fileID: 8619338778009177163, guid: 47a3741b253f088469eedd6d403dd89a, type: 3}
      propertyPath: m_LocalRotation.y
      value: 0.8709414
      objectReference: {fileID: 0}
    - target: {fileID: 8619338778009177163, guid: 47a3741b253f088469eedd6d403dd89a, type: 3}
      propertyPath: m_LocalRotation.z
      value: -0
      objectReference: {fileID: 0}
    - target: {fileID: 8619338778009177163, guid: 47a3741b253f088469eedd6d403dd89a, type: 3}
      propertyPath: m_LocalEulerAnglesHint.x
      value: 0
      objectReference: {fileID: 0}
    - target: {fileID: 8619338778009177163, guid: 47a3741b253f088469eedd6d403dd89a, type: 3}
      propertyPath: m_LocalEulerAnglesHint.y
      value: 121.136
      objectReference: {fileID: 0}
    - target: {fileID: 8619338778009177163, guid: 47a3741b253f088469eedd6d403dd89a, type: 3}
      propertyPath: m_LocalEulerAnglesHint.z
      value: 0
      objectReference: {fileID: 0}
    - target: {fileID: 8619338778009177541, guid: 47a3741b253f088469eedd6d403dd89a, type: 3}
      propertyPath: m_LocalPosition.x
      value: -0.316
      objectReference: {fileID: 0}
    - target: {fileID: 8619338778009177541, guid: 47a3741b253f088469eedd6d403dd89a, type: 3}
      propertyPath: m_LocalPosition.y
      value: -0.129
      objectReference: {fileID: 0}
    - target: {fileID: 8619338778009177541, guid: 47a3741b253f088469eedd6d403dd89a, type: 3}
      propertyPath: m_LocalPosition.z
      value: 0.136
      objectReference: {fileID: 0}
    - target: {fileID: 8619338778009177541, guid: 47a3741b253f088469eedd6d403dd89a, type: 3}
      propertyPath: m_LocalRotation.w
      value: 0.5538793
      objectReference: {fileID: 0}
    - target: {fileID: 8619338778009177541, guid: 47a3741b253f088469eedd6d403dd89a, type: 3}
      propertyPath: m_LocalRotation.x
      value: 0.39525926
      objectReference: {fileID: 0}
    - target: {fileID: 8619338778009177541, guid: 47a3741b253f088469eedd6d403dd89a, type: 3}
      propertyPath: m_LocalRotation.y
      value: 0.49428955
      objectReference: {fileID: 0}
    - target: {fileID: 8619338778009177541, guid: 47a3741b253f088469eedd6d403dd89a, type: 3}
      propertyPath: m_LocalRotation.z
      value: 0.54098594
      objectReference: {fileID: 0}
    - target: {fileID: 8619338778009177541, guid: 47a3741b253f088469eedd6d403dd89a, type: 3}
      propertyPath: m_LocalEulerAnglesHint.x
      value: -5.564
      objectReference: {fileID: 0}
    - target: {fileID: 8619338778009177541, guid: 47a3741b253f088469eedd6d403dd89a, type: 3}
      propertyPath: m_LocalEulerAnglesHint.y
      value: 78.473
      objectReference: {fileID: 0}
    - target: {fileID: 8619338778009177541, guid: 47a3741b253f088469eedd6d403dd89a, type: 3}
      propertyPath: m_LocalEulerAnglesHint.z
      value: 84.106
      objectReference: {fileID: 0}
    m_RemovedComponents: []
    m_RemovedGameObjects: []
    m_AddedGameObjects:
    - targetCorrespondingSourceObject: {fileID: 8619338778009177133, guid: 47a3741b253f088469eedd6d403dd89a, type: 3}
      insertIndex: -1
      addedObject: {fileID: 6428963594099776919}
    m_AddedComponents: []
  m_SourcePrefab: {fileID: 100100000, guid: 47a3741b253f088469eedd6d403dd89a, type: 3}
--- !u!4 &2357573403259868858 stripped
Transform:
  m_CorrespondingSourceObject: {fileID: 8619338778009177133, guid: 47a3741b253f088469eedd6d403dd89a, type: 3}
  m_PrefabInstance: {fileID: 6280764973795383959}
  m_PrefabAsset: {fileID: 0}
--- !u!1001 &9002862217315313762
PrefabInstance:
  m_ObjectHideFlags: 0
  serializedVersion: 2
  m_Modification:
    serializedVersion: 3
    m_TransformParent: {fileID: 2357573403259868858}
    m_Modifications:
    - target: {fileID: 722544321671847799, guid: 7b2a83854502d9a48a435aed13778c98, type: 3}
      propertyPath: m_LocalPosition.x
      value: 0
      objectReference: {fileID: 0}
    - target: {fileID: 722544321671847799, guid: 7b2a83854502d9a48a435aed13778c98, type: 3}
      propertyPath: m_LocalPosition.y
      value: -0.037
      objectReference: {fileID: 0}
    - target: {fileID: 722544321671847799, guid: 7b2a83854502d9a48a435aed13778c98, type: 3}
      propertyPath: m_LocalPosition.z
      value: 0.466
      objectReference: {fileID: 0}
    - target: {fileID: 2722658175389087221, guid: 7b2a83854502d9a48a435aed13778c98, type: 3}
      propertyPath: m_RootOrder
      value: 0
      objectReference: {fileID: 0}
    - target: {fileID: 2722658175389087221, guid: 7b2a83854502d9a48a435aed13778c98, type: 3}
      propertyPath: m_LocalPosition.x
      value: 0
      objectReference: {fileID: 0}
    - target: {fileID: 2722658175389087221, guid: 7b2a83854502d9a48a435aed13778c98, type: 3}
      propertyPath: m_LocalPosition.y
      value: 0
      objectReference: {fileID: 0}
    - target: {fileID: 2722658175389087221, guid: 7b2a83854502d9a48a435aed13778c98, type: 3}
      propertyPath: m_LocalPosition.z
      value: 0
      objectReference: {fileID: 0}
    - target: {fileID: 2722658175389087221, guid: 7b2a83854502d9a48a435aed13778c98, type: 3}
      propertyPath: m_LocalRotation.w
      value: 1
      objectReference: {fileID: 0}
    - target: {fileID: 2722658175389087221, guid: 7b2a83854502d9a48a435aed13778c98, type: 3}
      propertyPath: m_LocalRotation.x
      value: 0
      objectReference: {fileID: 0}
    - target: {fileID: 2722658175389087221, guid: 7b2a83854502d9a48a435aed13778c98, type: 3}
      propertyPath: m_LocalRotation.y
      value: 0
      objectReference: {fileID: 0}
    - target: {fileID: 2722658175389087221, guid: 7b2a83854502d9a48a435aed13778c98, type: 3}
      propertyPath: m_LocalRotation.z
      value: 0
      objectReference: {fileID: 0}
    - target: {fileID: 2722658175389087221, guid: 7b2a83854502d9a48a435aed13778c98, type: 3}
      propertyPath: m_LocalEulerAnglesHint.x
      value: 0
      objectReference: {fileID: 0}
    - target: {fileID: 2722658175389087221, guid: 7b2a83854502d9a48a435aed13778c98, type: 3}
      propertyPath: m_LocalEulerAnglesHint.y
      value: 0
      objectReference: {fileID: 0}
    - target: {fileID: 2722658175389087221, guid: 7b2a83854502d9a48a435aed13778c98, type: 3}
      propertyPath: m_LocalEulerAnglesHint.z
      value: 0
      objectReference: {fileID: 0}
    - target: {fileID: 8116212054005600677, guid: 7b2a83854502d9a48a435aed13778c98, type: 3}
      propertyPath: m_Name
      value: MuzzleFlashStandard
      objectReference: {fileID: 0}
    - target: {fileID: 8116212054005600677, guid: 7b2a83854502d9a48a435aed13778c98, type: 3}
      propertyPath: m_IsActive
      value: 0
      objectReference: {fileID: 0}
    m_RemovedComponents: []
    m_RemovedGameObjects: []
    m_AddedGameObjects: []
    m_AddedComponents: []
  m_SourcePrefab: {fileID: 100100000, guid: 7b2a83854502d9a48a435aed13778c98, type: 3}
--- !u!4 &6428963594099776919 stripped
Transform:
  m_CorrespondingSourceObject: {fileID: 2722658175389087221, guid: 7b2a83854502d9a48a435aed13778c98, type: 3}
  m_PrefabInstance: {fileID: 9002862217315313762}
  m_PrefabAsset: {fileID: 0}
