Library\Bee\artifacts\mvdfrm\UnityEditor.TestRunner.ref.dll_193EC4CE382CBFB3.mvfrm
Library\Bee\artifacts\mvdfrm\UnityEditor.UI.ref.dll_4C98D3F7040CD4F5.mvfrm
Library\Bee\artifacts\mvdfrm\UnityEngine.TestRunner.ref.dll_E55D0F7C63F01D9E.mvfrm
Library\Bee\artifacts\mvdfrm\UnityEngine.UI.ref.dll_08FEAA520A2EFD60.mvfrm
Library\Bee\artifacts\mvdfrm\UnityEditor.Graphs.dll_EA9FACE2FC2186C5.mvfrm
Library\Bee\artifacts\mvdfrm\UnityEditor.CoreModule.dll_40416944FD524F93.mvfrm
Library\Bee\artifacts\mvdfrm\UnityEditor.DeviceSimulatorModule.dll_3C94C3A6EF46F79E.mvfrm
Library\Bee\artifacts\mvdfrm\UnityEditor.DiagnosticsModule.dll_308812C18F3B126C.mvfrm
Library\Bee\artifacts\mvdfrm\UnityEditor.dll_53858D3B8CB72592.mvfrm
Library\Bee\artifacts\mvdfrm\UnityEditor.EditorToolbarModule.dll_F5BC5629D3BF5DAE.mvfrm
Library\Bee\artifacts\mvdfrm\UnityEditor.GraphViewModule.dll_9566ACA83FDA20C3.mvfrm
Library\Bee\artifacts\mvdfrm\UnityEditor.PresetsUIModule.dll_50CCE58A423278C8.mvfrm
Library\Bee\artifacts\mvdfrm\UnityEditor.QuickSearchModule.dll_BB9793CEE8120EC5.mvfrm
Library\Bee\artifacts\mvdfrm\UnityEditor.SceneTemplateModule.dll_195BC6E7D2AC07E6.mvfrm
Library\Bee\artifacts\mvdfrm\UnityEditor.SceneViewModule.dll_D4168FB034FCEDD1.mvfrm
Library\Bee\artifacts\mvdfrm\UnityEditor.TextCoreFontEngineModule.dll_309C8D087091DFB1.mvfrm
Library\Bee\artifacts\mvdfrm\UnityEditor.TextCoreTextEngineModule.dll_7884C37A001598CF.mvfrm
Library\Bee\artifacts\mvdfrm\UnityEditor.UIBuilderModule.dll_E9EF59C4B29299F7.mvfrm
Library\Bee\artifacts\mvdfrm\UnityEditor.UIElementsModule.dll_1E7FFE465C6483EF.mvfrm
Library\Bee\artifacts\mvdfrm\UnityEditor.UIElementsSamplesModule.dll_5B8B7C846081516E.mvfrm
Library\Bee\artifacts\mvdfrm\UnityEditor.UnityConnectModule.dll_CB331C4CD963C7C9.mvfrm
Library\Bee\artifacts\mvdfrm\UnityEngine.AccessibilityModule.dll_4C01327ED3222F83.mvfrm
Library\Bee\artifacts\mvdfrm\UnityEngine.AIModule.dll_0087437E2C1F6987.mvfrm
Library\Bee\artifacts\mvdfrm\UnityEngine.AndroidJNIModule.dll_9CC8E719A583F2C5.mvfrm
Library\Bee\artifacts\mvdfrm\UnityEngine.AnimationModule.dll_63EC28D11A36F569.mvfrm
Library\Bee\artifacts\mvdfrm\UnityEngine.ARModule.dll_B9FA0881893CC850.mvfrm
Library\Bee\artifacts\mvdfrm\UnityEngine.AssetBundleModule.dll_FF80C6C04A78C3B7.mvfrm
Library\Bee\artifacts\mvdfrm\UnityEngine.AudioModule.dll_D88F422C85FB541B.mvfrm
Library\Bee\artifacts\mvdfrm\UnityEngine.ClothModule.dll_3F779F27601832FF.mvfrm
Library\Bee\artifacts\mvdfrm\UnityEngine.ClusterInputModule.dll_4ACF91628AEB9A8F.mvfrm
Library\Bee\artifacts\mvdfrm\UnityEngine.ClusterRendererModule.dll_424186185F020522.mvfrm
Library\Bee\artifacts\mvdfrm\UnityEngine.ContentLoadModule.dll_9897200118FB6BA4.mvfrm
Library\Bee\artifacts\mvdfrm\UnityEngine.CoreModule.dll_63623C97A557BABE.mvfrm
Library\Bee\artifacts\mvdfrm\UnityEngine.CrashReportingModule.dll_A8B66EB89F177116.mvfrm
Library\Bee\artifacts\mvdfrm\UnityEngine.DirectorModule.dll_2D3D789B9417C85B.mvfrm
Library\Bee\artifacts\mvdfrm\UnityEngine.dll_8629D413EB2AB277.mvfrm
Library\Bee\artifacts\mvdfrm\UnityEngine.DSPGraphModule.dll_328EDA050678997C.mvfrm
Library\Bee\artifacts\mvdfrm\UnityEngine.GameCenterModule.dll_C71631346BC4E3B6.mvfrm
Library\Bee\artifacts\mvdfrm\UnityEngine.GIModule.dll_98C38C8BC7CE51A1.mvfrm
Library\Bee\artifacts\mvdfrm\UnityEngine.GridModule.dll_40D35885BDAC50B5.mvfrm
Library\Bee\artifacts\mvdfrm\UnityEngine.HotReloadModule.dll_E534E6D6F56A10EB.mvfrm
Library\Bee\artifacts\mvdfrm\UnityEngine.ImageConversionModule.dll_AE3383C8E126BD16.mvfrm
Library\Bee\artifacts\mvdfrm\UnityEngine.IMGUIModule.dll_10EEE1934C2CE7FC.mvfrm
Library\Bee\artifacts\mvdfrm\UnityEngine.InputLegacyModule.dll_90C5E1DEE26A79A8.mvfrm
Library\Bee\artifacts\mvdfrm\UnityEngine.InputModule.dll_3F0509DCFC3378BF.mvfrm
Library\Bee\artifacts\mvdfrm\UnityEngine.JSONSerializeModule.dll_AC18BBBAD25D900D.mvfrm
Library\Bee\artifacts\mvdfrm\UnityEngine.LocalizationModule.dll_891C5BB522678D88.mvfrm
Library\Bee\artifacts\mvdfrm\UnityEngine.NVIDIAModule.dll_12DD94B928AAD2EA.mvfrm
Library\Bee\artifacts\mvdfrm\UnityEngine.ParticleSystemModule.dll_FBC8B8050D28FCA4.mvfrm
Library\Bee\artifacts\mvdfrm\UnityEngine.PerformanceReportingModule.dll_F1170B869A7D8D7D.mvfrm
Library\Bee\artifacts\mvdfrm\UnityEngine.Physics2DModule.dll_B09218C1BB33ECFE.mvfrm
Library\Bee\artifacts\mvdfrm\UnityEngine.PhysicsModule.dll_ED9DD7BA8B05604C.mvfrm
Library\Bee\artifacts\mvdfrm\UnityEngine.ProfilerModule.dll_5F83B1D22D714F68.mvfrm
Library\Bee\artifacts\mvdfrm\UnityEngine.PropertiesModule.dll_F4517072DEB047F2.mvfrm
Library\Bee\artifacts\mvdfrm\UnityEngine.RuntimeInitializeOnLoadManagerInitializerModule.dll_FFB68FAFADA859C7.mvfrm
Library\Bee\artifacts\mvdfrm\UnityEngine.ScreenCaptureModule.dll_C600693FE6C9BC6F.mvfrm
Library\Bee\artifacts\mvdfrm\UnityEngine.SharedInternalsModule.dll_3244C29E5854B866.mvfrm
Library\Bee\artifacts\mvdfrm\UnityEngine.SpriteMaskModule.dll_B042A3C48D347930.mvfrm
Library\Bee\artifacts\mvdfrm\UnityEngine.SpriteShapeModule.dll_18E1F41B001AFBC1.mvfrm
Library\Bee\artifacts\mvdfrm\UnityEngine.StreamingModule.dll_1881162169BEACA7.mvfrm
Library\Bee\artifacts\mvdfrm\UnityEngine.SubstanceModule.dll_F52C2A6AB511AAB5.mvfrm
Library\Bee\artifacts\mvdfrm\UnityEngine.SubsystemsModule.dll_1AF00A265B7C6143.mvfrm
Library\Bee\artifacts\mvdfrm\UnityEngine.TerrainModule.dll_07E4532960C3A93A.mvfrm
Library\Bee\artifacts\mvdfrm\UnityEngine.TerrainPhysicsModule.dll_FC4360D8266BF731.mvfrm
Library\Bee\artifacts\mvdfrm\UnityEngine.TextCoreFontEngineModule.dll_AEFC085B838F9E7C.mvfrm
Library\Bee\artifacts\mvdfrm\UnityEngine.TextCoreTextEngineModule.dll_F6E43ECD1313579A.mvfrm
Library\Bee\artifacts\mvdfrm\UnityEngine.TextRenderingModule.dll_EF3FDB4A9E013C64.mvfrm
Library\Bee\artifacts\mvdfrm\UnityEngine.TilemapModule.dll_A6E0BAAA78808A43.mvfrm
Library\Bee\artifacts\mvdfrm\UnityEngine.TLSModule.dll_F41D21179E6CBE20.mvfrm
Library\Bee\artifacts\mvdfrm\UnityEngine.UIElementsModule.dll_1F2E6B8E5EA89D3A.mvfrm
Library\Bee\artifacts\mvdfrm\UnityEngine.UIModule.dll_FBFAE1AB88666F33.mvfrm
Library\Bee\artifacts\mvdfrm\UnityEngine.UmbraModule.dll_5363EE451321FF8E.mvfrm
Library\Bee\artifacts\mvdfrm\UnityEngine.UnityAnalyticsCommonModule.dll_8C55C8CAB4662BDB.mvfrm
Library\Bee\artifacts\mvdfrm\UnityEngine.UnityAnalyticsModule.dll_1B6828CEB9504EA0.mvfrm
Library\Bee\artifacts\mvdfrm\UnityEngine.UnityConnectModule.dll_B892A05BD3EBC874.mvfrm
Library\Bee\artifacts\mvdfrm\UnityEngine.UnityCurlModule.dll_9708CA028A4AE756.mvfrm
Library\Bee\artifacts\mvdfrm\UnityEngine.UnityTestProtocolModule.dll_174E3276BA7CA6C4.mvfrm
Library\Bee\artifacts\mvdfrm\UnityEngine.UnityWebRequestAssetBundleModule.dll_310A84A2B5A46971.mvfrm
Library\Bee\artifacts\mvdfrm\UnityEngine.UnityWebRequestAudioModule.dll_69135F6520E85815.mvfrm
Library\Bee\artifacts\mvdfrm\UnityEngine.UnityWebRequestModule.dll_BFD28B72EC1B5795.mvfrm
Library\Bee\artifacts\mvdfrm\UnityEngine.UnityWebRequestTextureModule.dll_1EC4C694943CF28A.mvfrm
Library\Bee\artifacts\mvdfrm\UnityEngine.UnityWebRequestWWWModule.dll_C1A6842902D31406.mvfrm
Library\Bee\artifacts\mvdfrm\UnityEngine.VehiclesModule.dll_A500721B0E4197F6.mvfrm
Library\Bee\artifacts\mvdfrm\UnityEngine.VFXModule.dll_74FBB98674DA278D.mvfrm
Library\Bee\artifacts\mvdfrm\UnityEngine.VideoModule.dll_FD98C697488D6FC0.mvfrm
Library\Bee\artifacts\mvdfrm\UnityEngine.VirtualTexturingModule.dll_EA45842B3B6163DC.mvfrm
Library\Bee\artifacts\mvdfrm\UnityEngine.VRModule.dll_4ECD08312A20F4AB.mvfrm
Library\Bee\artifacts\mvdfrm\UnityEngine.WindModule.dll_D9B117C0368E3927.mvfrm
Library\Bee\artifacts\mvdfrm\UnityEngine.XRModule.dll_818BCB35B35B4209.mvfrm
Library\Bee\artifacts\mvdfrm\UnityEditor.WindowsStandalone.Extensions.dll_855AD51430D0963D.mvfrm